Take-home_Ex_feedback – ISSS608-VAA
…
Make-over version of data visualization-Half-eye + Box Plot Visualisation of Age vs Region

Ridgeline plot with inside plot and annotations: it conveys the ridgeline plot is a type of chart that displays the distribution of a numeric variable for several groups.

Plot

pacman::p_load(tidyverse, ggplot2, ggrepel, patchwork, 
               ggthemes,dplyr, xml12, sf, scales) 

sgResData24 <- read_csv("respopagesex2024.csv")

distinct(sgResData24)

# A tibble: 60,424 × 6
   PA         SZ                     Age   Sex       Pop  Time
   <chr>      <chr>                  <chr> <chr>   <dbl> <dbl>
 1 Ang Mo Kio Ang Mo Kio Town Centre 0     Males      10  2024
 2 Ang Mo Kio Ang Mo Kio Town Centre 0     Females    10  2024
 3 Ang Mo Kio Ang Mo Kio Town Centre 1     Males      10  2024
 4 Ang Mo Kio Ang Mo Kio Town Centre 1     Females    10  2024
 5 Ang Mo Kio Ang Mo Kio Town Centre 2     Males      10  2024
 6 Ang Mo Kio Ang Mo Kio Town Centre 2     Females    10  2024
 7 Ang Mo Kio Ang Mo Kio Town Centre 3     Males      10  2024
 8 Ang Mo Kio Ang Mo Kio Town Centre 3     Females    10  2024
 9 Ang Mo Kio Ang Mo Kio Town Centre 4     Males      30  2024
10 Ang Mo Kio Ang Mo Kio Town Centre 4     Females    10  2024
# ℹ 60,414 more rows
…
# Apply the extraction function to each row
info_list <- lapply(geo_data$Description, extract_info)

# Combine results into a data frame
info_df <- bind_rows(info_list) %>% distinct() %>% arrange(Region, Town)

# View result
print(info_df)

# A tibble: 55 × 2
   Town          Region        
   <chr>         <chr>         
 1 BISHAN        CENTRAL REGION
 2 BUKIT MERAH   CENTRAL REGION
 3 BUKIT TIMAH   CENTRAL REGION
 4 DOWNTOWN CORE CENTRAL REGION
 5 GEYLANG       CENTRAL REGION
 6 KALLANG       CENTRAL REGION
 7 MARINA EAST   CENTRAL REGION
 8 MARINA SOUTH  CENTRAL REGION
 9 MARINE PARADE CENTRAL REGION
10 MUSEUM        CENTRAL REGION
# ℹ 45 more rows

sgResData24 %>% mutate(PA = toupper(PA))

# A tibble: 60,424 × 8
   PA         SZ                     Age   Sex       Pop  Time Age_num Age_group
   <chr>      <chr>                  <chr> <chr>   <dbl> <dbl>   <dbl> <chr>    
 1 ANG MO KIO Ang Mo Kio Town Centre 0     Males      10  2024       0 0-9      
 2 ANG MO KIO Ang Mo Kio Town Centre 0     Females    10  2024       0 0-9      
 3 ANG MO KIO Ang Mo Kio Town Centre 1     Males      10  2024       1 0-9      
 4 ANG MO KIO Ang Mo Kio Town Centre 1     Females    10  2024       1 0-9      
 5 ANG MO KIO Ang Mo Kio Town Centre 2     Males      10  2024       2 0-9      
 6 ANG MO KIO Ang Mo Kio Town Centre 2     Females    10  2024       2 0-9      
 7 ANG MO KIO Ang Mo Kio Town Centre 3     Males      10  2024       3 0-9      
 8 ANG MO KIO Ang Mo Kio Town Centre 3     Females    10  2024       3 0-9      
 9 ANG MO KIO Ang Mo Kio Town Centre 4     Males      30  2024       4 0-9      
10 ANG MO KIO Ang Mo Kio Town Centre 4     Females    10  2024       4 0-9      
# ℹ 60,414 more rows

library(dplyr)

# Rename Town to PA in the region info dataframe
region_info <- info_df %>% rename(PA = Town)

# left join sgResData24 with region_info to get Region column
sgResData24 <- sgResData24 %>% mutate(PA = toupper(PA)) %>%
  left_join(region_info, by = "PA")

print(sgResData24)

# A tibble: 60,424 × 9
   PA         SZ                Age   Sex     Pop  Time Age_num Age_group Region
   <chr>      <chr>             <chr> <chr> <dbl> <dbl>   <dbl> <chr>     <chr> 
 1 ANG MO KIO Ang Mo Kio Town … 0     Males    10  2024       0 0-9       NORTH…
 2 ANG MO KIO Ang Mo Kio Town … 0     Fema…    10  2024       0 0-9       NORTH…
 3 ANG MO KIO Ang Mo Kio Town … 1     Males    10  2024       1 0-9       NORTH…
 4 ANG MO KIO Ang Mo Kio Town … 1     Fema…    10  2024       1 0-9       NORTH…
 5 ANG MO KIO Ang Mo Kio Town … 2     Males    10  2024       2 0-9       NORTH…
 6 ANG MO KIO Ang Mo Kio Town … 2     Fema…    10  2024       2 0-9       NORTH…
 7 ANG MO KIO Ang Mo Kio Town … 3     Males    10  2024       3 0-9       NORTH…
 8 ANG MO KIO Ang Mo Kio Town … 3     Fema…    10  2024       3 0-9       NORTH…
 9 ANG MO KIO Ang Mo Kio Town … 4     Males    30  2024       4 0-9       NORTH…
10 ANG MO KIO Ang Mo Kio Town … 4     Fema…    10  2024       4 0-9       NORTH…
# ℹ 60,414 more rows
…
